<svg width="285px" height="418px" viewBox="0 0 285 418" version="1.1" xmlns="http://www.w3.org/2000/svg" xmlns:xlink="http://www.w3.org/1999/xlink">
              <defs>
                  <filter x="-1.9%" y="-1.7%" width="105.0%" height="103.4%" filterUnits="objectBoundingBox" id="filter-1">
                      <feOffset dx="2" dy="0" in="SourceAlpha" result="shadowOffsetOuter1"></feOffset>
                      <feGaussianBlur stdDeviation="2" in="shadowOffsetOuter1" result="shadowBlurOuter1"></feGaussianBlur>
                      <feColorMatrix values="0 0 0 0 0   0 0 0 0 0   0 0 0 0 0  0 0 0 0.14342731 0" type="matrix" in="shadowBlurOuter1" result="shadowMatrixOuter1"></feColorMatrix>
                      <feMerge>
                          <feMergeNode in="shadowMatrixOuter1"></feMergeNode>
                          <feMergeNode in="SourceGraphic"></feMergeNode>
                      </feMerge>
                  </filter>
              </defs>
                  <g id="reindeer-container" transform="translate(0.000000, -1106.000000)">
                      <g id="Renne" filter="url(#filter-1)" transform="translate(123.000000, 1315.000000) scale(-1, 1) translate(-123.000000, -1315.000000) translate(-38.000000, 1110.000000)">
                          <path d="M255.691406,398.084185 C194.179688,339.91231 187.882813,310.238281 190.394531,270.441406 C192.90625,230.644531 221.704811,244.05433 248.540585,202.546875 C262.117695,181.546875 275.942708,164.970052 290.015625,152.816406 L290.015625,398.084185 C267.990599,397.291351 256.549192,397.291351 255.691406,398.084185 Z" id="body" fill="#C28A52"></path>
                          <g id="Hands" transform="translate(245.000000, 150.000000)">
                              <g id="Hand-left" transform="translate(20.000000, 0.000000)">
                                  <rect id="hand_left_back" fill="#FFFFFF" x="0" y="3" width="51" height="60" rx="25.5"></rect>
                                  <rect id="hand_left" fill="#6BB915" x="6" y="0" width="51" height="60" rx="25.5"></rect>
                              </g>
                              <g id="Hand-right" transform="translate(0.000000, 197.000000)">
                                  <rect id="hand_right_back" fill="#FFFFFF" x="0" y="0" width="51" height="60" rx="25.5"></rect>
                                  <rect id="hand_right" fill="#6BB915" x="12" y="3" width="51" height="60" rx="25.5"></rect>
                              </g>
                          </g>
                          <g id="Head">
                              <g id="Hat">
                                  <path d="M198.318359,100.919922 C178.166016,90.8632812 136.974609,77.6269531 95.7910156,116.015625 C68.3352865,141.608073 63.2486979,180.188802 80.53125,231.757812 L92.0820312,231.757812 C97.0390625,209.223958 102.882161,196.319661 109.611328,193.044922 C119.705078,188.132813 218.470703,110.976562 198.318359,100.919922 Z" id="hat_3" fill="#D0021B"></path>
                                  <ellipse id="hat_2" fill="#ED1B1B" transform="translate(145.305819, 143.065758) rotate(-46.000000) translate(-145.305819, -143.065758) " cx="145.305819" cy="143.065758" rx="68.7563897" ry="42"></ellipse>
                                  <path d="M193.046875,104.738281 C193.046875,73.9257813 206.439453,60.062448 208.125977,41.6044922 C209.8125,23.1465364 210.616699,17.3735352 193.046875,5.52148437 C175.477051,-6.33056641 162.300781,5.38867188 172.667969,8.32421875 C183.035156,11.2597656 196.72168,16.1196289 198.750977,28.8330078 C199.574507,33.9923583 199.307562,39.1718967 198.750977,43.1015625 C197.936056,48.8551564 195.579687,52.103185 187.533203,50.1171875 C173.991025,46.7747671 164.685312,43.254494 162.53418,47.6171875 C157.997559,56.8178711 176.592773,54.074707 184.428223,60.1484375 C187.806076,62.7668155 188.956534,70.1316098 187.533203,73.828125 C183.057786,85.4511719 171.664062,82.7382812 164.287109,75.8417969 C156.910156,68.9453125 151.212891,69.1328125 148.839844,73.828125 C146.466797,78.5234375 154.420898,87.1142578 164.990234,86.1669922 C168.627628,85.8409946 176.888805,90.3005826 181.314453,96.347168 C184.715332,100.993652 184.053048,106.814935 185.811354,110.135742 C189.465381,117.036882 193.046875,118.381642 193.046875,104.738281 Z" id="horn_left" fill="#6A370A"></path>
                                  <path d="M76.1899757,211.751768 C76.1899757,180.939268 89.5825538,167.075934 91.2690773,148.617979 C92.9556007,130.160023 93.7597999,124.387022 76.1899757,112.534971 C58.6201515,100.68292 45.443882,112.402158 55.8110695,115.337705 C66.178257,118.273252 79.8647804,123.133115 81.8940773,135.846494 C82.7176076,141.005845 82.4506622,146.185383 81.8940773,150.115049 C81.0791571,155.868643 78.7227879,159.116671 70.6763038,157.130674 C57.1341254,153.788254 47.8284127,150.26798 45.6772804,154.630674 C41.1406593,163.831358 59.7358741,161.088194 67.5713234,167.161924 C70.9491762,169.780302 72.0996352,177.145096 70.6763038,180.841611 C66.2008869,192.464658 54.8071632,189.751768 47.4302101,182.855283 C40.053257,175.958799 34.3559913,176.146299 31.9829445,180.841611 C29.6098976,185.536924 37.5639991,194.127744 48.1333351,193.180479 C51.7707291,192.854481 60.0319057,197.314069 64.4575538,203.360654 C67.8584327,208.007139 67.196149,213.828422 68.9544551,217.149229 C72.6084817,224.050368 76.1899757,225.395129 76.1899757,211.751768 Z" id="horn_right" fill="#6A370A" transform="translate(61.829965, 164.784170) scale(-1, 1) rotate(80.000000) translate(-61.829965, -164.784170) "></path>
                                  <path d="M137.757812,224.914062 C122.916016,217.535156 110.441406,209.462891 108.455078,196.271484 C106.46875,183.080078 115.717687,171.509766 119.345703,167.419922 C121.76438,164.693359 131.672583,154.462891 149.070313,136.728516 C173.054688,115.895182 187.61849,105.606771 192.761719,105.863281 C200.476563,106.248047 208.109375,106.039062 215.669922,116.347656 C223.230469,126.65625 228.75,132.75 227.373047,136.728516 C225.996094,140.707031 152.599609,232.292969 137.757812,224.914062 Z" id="hat_3" fill="#FFFFFF"></path>
                                  <circle id="hat_ball" fill="#FFFFFF" cx="86.5" cy="243.5" r="15.5"></circle>
                              </g>
                              <path d="M161.703125,153.341797 C145.628906,168.802734 116.640625,186.869141 125.197266,207.382813 C133.753906,227.896484 163.552734,248.460938 189.171875,245.929688 C214.791016,243.398438 241.21875,216.315556 244.505859,199.741762 C247.792969,183.167969 244.039063,157.611328 222.056641,134.667969 C200.074219,111.724609 177.777344,137.880859 161.703125,153.341797 Z" id="face" fill="#C28A52"></path>
                              <g id="Nose" transform="translate(161.000000, 164.000000)">
                                  <ellipse id="big-nose" fill="#E4B78F" transform="translate(58.926712, 58.756790) rotate(-45.000000) translate(-58.926712, -58.756790) " cx="58.926712" cy="58.7567902" rx="43.5" ry="39.1146707"></ellipse>
                                  <ellipse id="nose" fill="#FF2700" transform="translate(65.982220, 65.827303) rotate(-45.000000) translate(-65.982220, -65.827303) " cx="65.9822201" cy="65.8273026" rx="18.1327312" ry="17.1925446"></ellipse>
                                  <ellipse id="reflect-nose" fill="#F98A97" transform="translate(59.731723, 63.731723) rotate(-45.000000) translate(-59.731723, -63.731723) " cx="59.7317229" cy="63.7317229" rx="4.8867362" ry="4.6333577"></ellipse>
                              </g>
                              <g id="Ears" transform="translate(96.000000, 106.000000)" fill="#C28A52">
                                  <ellipse id="ear_right" transform="translate(24.595552, 119.530900) rotate(-26.000000) translate(-24.595552, -119.530900) " cx="24.5955516" cy="119.5309" rx="22" ry="11"></ellipse>
                                  <ellipse id="ear_left" transform="translate(138.986753, 24.486170) rotate(-58.000000) translate(-138.986753, -24.486170) " cx="138.986753" cy="24.48617" rx="22" ry="11"></ellipse>
                              </g>
                              <g id="Eyes" transform="translate(164.000000, 167.000000)">
                                  <g id="Eye_right" transform="translate(0.000000, 26.000000)">
                                      <circle id="Oval-7" fill="#43270F" cx="9.5" cy="9.5" r="9.5"></circle>
                                      <circle id="Oval-7-Copy" fill="#FFFFFF" cx="8" cy="5" r="3"></circle>
                                  </g>
                                  <g id="Eye_left" transform="translate(26.000000, 0.000000)">
                                      <circle id="Oval-7" fill="#43270F" cx="9.5" cy="9.5" r="9.5"></circle>
                                      <circle id="Oval-7-Copy" fill="#FFFFFF" cx="8" cy="5" r="3"></circle>
                                  </g>
                              </g>
                          </g>
                      </g>
                  </g>
          </svg>