ERROR - 2022-12-01 01:21:48 --> Error connecting to the database: mysqli_sql_exception: Access denied for user 'usergescen'@'localhost' (using password: YES) in /datos/usuarios/profesores/jbarrachinab/iaw/frameworks/gescen/system/Database/MySQLi/Connection.php:171
Stack trace:
#0 /datos/usuarios/profesores/jbarrachinab/iaw/frameworks/gescen/system/Database/MySQLi/Connection.php(171): mysqli->real_connect()
#1 /datos/usuarios/profesores/jbarrachinab/iaw/frameworks/gescen/system/Database/BaseConnection.php(382): CodeIgniter\Database\MySQLi\Connection->connect()
#2 /datos/usuarios/profesores/jbarrachinab/iaw/frameworks/gescen/system/Database/BaseConnection.php(588): CodeIgniter\Database\BaseConnection->initialize()
#3 /datos/usuarios/profesores/jbarrachinab/iaw/frameworks/gescen/system/Database/BaseBuilder.php(1585): CodeIgniter\Database\BaseConnection->query()
#4 /datos/usuarios/profesores/jbarrachinab/iaw/frameworks/gescen/system/Model.php(223): CodeIgniter\Database\BaseBuilder->get()
#5 /datos/usuarios/profesores/jbarrachinab/iaw/frameworks/gescen/system/BaseModel.php(584): CodeIgniter\Model->doFindAll()
#6 /datos/usuarios/profesores/jbarrachinab/iaw/frameworks/gescen/app/Controllers/AlumnoController.php(26): CodeIgniter\BaseModel->findAll()
#7 /datos/usuarios/profesores/jbarrachinab/iaw/frameworks/gescen/system/CodeIgniter.php(902): App\Controllers\AlumnoController->index()
#8 /datos/usuarios/profesores/jbarrachinab/iaw/frameworks/gescen/system/CodeIgniter.php(457): CodeIgniter\CodeIgniter->runController()
#9 /datos/usuarios/profesores/jbarrachinab/iaw/frameworks/gescen/system/CodeIgniter.php(340): CodeIgniter\CodeIgniter->handleRequest()
#10 /datos/usuarios/profesores/jbarrachinab/iaw/frameworks/gescen/public/index.php(67): CodeIgniter\CodeIgniter->run()
#11 {main}

Next CodeIgniter\Database\Exceptions\DatabaseException: Access denied for user '****'@'localhost' (using password: YES) in /datos/usuarios/profesores/jbarrachinab/iaw/frameworks/gescen/system/Database/MySQLi/Connection.php:215
Stack trace:
#0 /datos/usuarios/profesores/jbarrachinab/iaw/frameworks/gescen/system/Database/BaseConnection.php(382): CodeIgniter\Database\MySQLi\Connection->connect()
#1 /datos/usuarios/profesores/jbarrachinab/iaw/frameworks/gescen/system/Database/BaseConnection.php(588): CodeIgniter\Database\BaseConnection->initialize()
#2 /datos/usuarios/profesores/jbarrachinab/iaw/frameworks/gescen/system/Database/BaseBuilder.php(1585): CodeIgniter\Database\BaseConnection->query()
#3 /datos/usuarios/profesores/jbarrachinab/iaw/frameworks/gescen/system/Model.php(223): CodeIgniter\Database\BaseBuilder->get()
#4 /datos/usuarios/profesores/jbarrachinab/iaw/frameworks/gescen/system/BaseModel.php(584): CodeIgniter\Model->doFindAll()
#5 /datos/usuarios/profesores/jbarrachinab/iaw/frameworks/gescen/app/Controllers/AlumnoController.php(26): CodeIgniter\BaseModel->findAll()
#6 /datos/usuarios/profesores/jbarrachinab/iaw/frameworks/gescen/system/CodeIgniter.php(902): App\Controllers\AlumnoController->index()
#7 /datos/usuarios/profesores/jbarrachinab/iaw/frameworks/gescen/system/CodeIgniter.php(457): CodeIgniter\CodeIgniter->runController()
#8 /datos/usuarios/profesores/jbarrachinab/iaw/frameworks/gescen/system/CodeIgniter.php(340): CodeIgniter\CodeIgniter->handleRequest()
#9 /datos/usuarios/profesores/jbarrachinab/iaw/frameworks/gescen/public/index.php(67): CodeIgniter\CodeIgniter->run()
#10 {main}
CRITICAL - 2022-12-01 01:21:48 --> Unable to connect to the database.
Main connection [MySQLi]: Access denied for user '****'@'localhost' (using password: YES)
in SYSTEMPATH/Database/BaseConnection.php on line 418.
 1 SYSTEMPATH/Database/BaseConnection.php(588): CodeIgniter\Database\BaseConnection->initialize()
 2 SYSTEMPATH/Database/BaseBuilder.php(1585): CodeIgniter\Database\BaseConnection->query()
 3 SYSTEMPATH/Model.php(223): CodeIgniter\Database\BaseBuilder->get()
 4 SYSTEMPATH/BaseModel.php(584): CodeIgniter\Model->doFindAll()
 5 APPPATH/Controllers/AlumnoController.php(26): CodeIgniter\BaseModel->findAll()
 6 SYSTEMPATH/CodeIgniter.php(902): App\Controllers\AlumnoController->index()
 7 SYSTEMPATH/CodeIgniter.php(457): CodeIgniter\CodeIgniter->runController()
 8 SYSTEMPATH/CodeIgniter.php(340): CodeIgniter\CodeIgniter->handleRequest()
 9 FCPATH/index.php(67): CodeIgniter\CodeIgniter->run()
